+390230468200	+390230468200
+390266981551	Immobiliare
+393277774192	+393277774192
+393388178614	Andrea Populin, Cell
+393466197520	+393466197520
+393485846494	+393485846494
+3902943634	+3902943634
+393331616016	+393331616016
+393292792554	Colf Maria
+393289710983	Marta Boldizzoni
+393386469540	Ste Cell
+393342005711	+393342005711
+393921804543	Sofia
+390258105229	Dentista BDD
+393312291944	Matteo
+393346656047	Marina Borromeo
+393358181810	Minoli x Fioradina
+393393660775	Avvocato Davide Piacentini
+393356052918	Franci Cell
+393208388927	Borlo Cell